5007 4681 210
320 564 144
1046 4590 238
500 1388 182
1525 7726 262
7292 4498 262
2936 8790 262
8785 1085 262
9535 615 262
6520 2757 262
9107 7907 252
2897 3179 217
5075 1627 238
8798 2321 262
6946 8088 252
9681 474 262
2224 7038 262
5763 1352 238
4569 8832 262
1939 6895 262
1861 1247 180
1763 8069 262
2663 4638 238
785 1194 182
8148 1222 262
4935 6097 236
7123 8664 252
5059 3090 238
2995 2880 217
3925 8404 262
8055 5506 262
3779 7176 262
4598 2246 238
3179 9465 262
2580 1297 209
9013 593 262
8805 2074 262
6970 29 262
7338 3688 262
3057 9141 262
730 3728 238
9949 3473 262
2805 3171 217
7665 9323 260
1154 6511 262
2439 9429 262
9354 2942 262
4666 1315 238
7965 3527 262
1717 3345 217
5956 5024 236
9293 2203 262
4129 1405 238
2006 3694 217
9091 9902 260
2445 2104 183
148 4576 238
9181 1344 262
7409 8803 252
1660 7769 262
2548 8639 262
587 5634 238
1381 6872 262
6908 7222 257
1180 1680 180
7277 3704 262
8256 4902 262
6778 6520 244
8335 4097 262
4741 5650 236
9542 3274 262
2254 3431 217
9434 2014 262
4189 9959 262
4254 2229 238
8394 2439 262
3486 9064 262
1640 7118 262
5341 5509 192
2924 7836 262
7850 2724 262
7424 6139 262
8369 9075 247
7257 7070 195
1322 8972 262
3501 8818 262
9224 5022 262
8855 6838 257
3973 8643 262
3188 3474 181
9135 5565 262
4600 1326 238
1748 757 182
3298 9148 262
2076 9133 262
9689 4801 262
5592 4539 236
361 3660 217
350 4860 238
1809 9488 262
6790 1675 262
9110 1127 262
3807 3102 238
8274 6141 262
4998 3635 238
8803 4627 262
2903 9003 262
3025 4457 238
8496 6340 257
1756 2910 209
6516 8298 257
3359 3735 238
7151 5217 262
7308 1377 262
8780 6456 257
7047 8265 252
9852 6046 262
5139 3247 238
5112 245 238
3108 1687 217
5161 9799 262
6847 5206 262
7507 499 262
5496 4061 215
8948 1010 262
3492 3479 181
5448 3506 238
1712 5431 238
2641 1975 209
5715 2740 238
120 6072 238
3532 8910 262
3644 4754 238
5659 9497 262
5975 1147 238
5541 4932 197
3258 5458 238
7368 9808 260
7137 3193 262
1297 3101 217
3722 3983 189
1106 6317 262
9004 9703 260
784 695 171
334 2194 182
413 2482 209
574 4898 238
6982 7934 239
8847 4224 262
784 1308 182
9723 1571 262
4839 1067 238
8023 6429 257
9166 4613 262
2855 3456 217
5146 6594 262
6663 440 262
6712 3251 262
8488 4937 262
65 8229 262
2764 6204 262
1046 8134 262
459 9382 262
1929 8800 262
3695 306 217
8447 2882 262
7266 6805 257
9808 6312 260
469 55 144
9370 5315 262
7746 8679 252
8091 982 262
1733 864 182
7062 5002 262
8563 5240 262
3862 3027 238
8030 2986 262
9526 5063 262
4305 4420 215
3819 1212 238
9075 7803 252
7845 2921 262
9675 4213 262
9681 7509 260
4153 606 238
1865 580 182
6380 3040 262
8339 209 262
1927 3362 217
1477 399 182
7061 7701 239
2988 1574 217
8022 6574 257
3394 5448 238
8340 6306 257
3159 452 217
1940 6323 262
7821 6447 257
163 3067 217
4133 9775 262
